%module(package="m5.internal") param_GarnetNetworkInterface

%{
#include "sim/sim_object.hh"
#include "params/GarnetNetworkInterface.hh"
#include <cstddef>
#include "base/types.hh"
#include <cstddef>
#include "base/types.hh"
#include <cstddef>
#include "base/types.hh"
#include "mem/ruby/network/garnet2.0/NetworkInterface.hh"
/**
  * This is a workaround for bug in swig. Prior to gcc 4.6.1 the STL
  * headers like vector, string, etc. used to automatically pull in
  * the cstddef header but starting with gcc 4.6.1 they no longer do.
  * This leads to swig generated a file that does not compile so we
  * explicitly include cstddef. Additionally, including version 2.0.4,
  * swig uses ptrdiff_t without the std:: namespace prefix which is
  * required with gcc 4.6.1. We explicitly provide access to it.
  */
#include <cstddef>
using std::ptrdiff_t;
%}

%import "stdint.i"
%import "base/types.hh"
%import "stdint.i"
%import "base/types.hh"
%import "stdint.i"
%import "base/types.hh"

%import "python/m5/internal/param_ClockedObject.i"


// stop swig from creating/wrapping default ctor/dtor
%nodefault NetworkInterface;
class NetworkInterface
    : public ClockedObject
{
  public:
    void setLUTbit(int id);
    void resetLUTbit(int id);
    void setLUTdmabit(int id);
    void resetLUTdmabit(int id);
};

%include "params/GarnetNetworkInterface.hh"
