%module(package="m5.internal") param_System

%{
#include "sim/sim_object.hh"
#include "params/System.hh"
#include <cstddef>
#include <string>
#include <cstddef>
#include "base/types.hh"
#include <cstddef>
#include <cstddef>
#include "base/types.hh"
#include <cstddef>
#include <string>
#include <cstddef>
#include <cstddef>
#include "base/types.hh"
#include <cstddef>
#include "base/types.hh"
#include <cstddef>
#include "enums/MemoryMode.hh"
#include <vector>
#include "base/types.hh"
#include "base/addr_range.hh"
#include <vector>
#include "params/AbstractMemory.hh"
#include <cstddef>
#include <cstddef>
#include <cstddef>
#include "base/types.hh"
#include <cstddef>
#include <string>
#include <cstddef>
#include <string>
#include <vector>
#include "params/SimObject.hh"
#include <cstddef>
#include "params/ThermalModel.hh"
#include <cstddef>
#include "base/types.hh"
#include <cstddef>
#include "base/types.hh"
#include <cstddef>
#include "base/types.hh"
#include <cstddef>
#include "base/types.hh"
#include <cstddef>
#include "base/types.hh"
#include <cstddef>
#include "base/types.hh"
#include <cstddef>
#include "base/types.hh"
#include "sim/system.hh"
#include "sim/system.hh"
/**
  * This is a workaround for bug in swig. Prior to gcc 4.6.1 the STL
  * headers like vector, string, etc. used to automatically pull in
  * the cstddef header but starting with gcc 4.6.1 they no longer do.
  * This leads to swig generated a file that does not compile so we
  * explicitly include cstddef. Additionally, including version 2.0.4,
  * swig uses ptrdiff_t without the std:: namespace prefix which is
  * required with gcc 4.6.1. We explicitly provide access to it.
  */
#include <cstddef>
using std::ptrdiff_t;
%}

%include "std_string.i"
%import "stdint.i"
%import "base/types.hh"
%import "stdint.i"
%import "base/types.hh"
%include "std_string.i"
%import "stdint.i"
%import "base/types.hh"
%import "stdint.i"
%import "base/types.hh"
%import "python/m5/internal/enum_MemoryMode.i"
%import "AddrRange_vector.i"
%import "AbstractMemory_vector.i"
%import "stdint.i"
%import "base/types.hh"
%include "std_string.i"
%include "std_string.i"
%import "SimObject_vector.i"
%import "python/m5/internal/param_ThermalModel.i"
%import "stdint.i"
%import "base/types.hh"
%import "stdint.i"
%import "base/types.hh"
%import "stdint.i"
%import "base/types.hh"
%import "stdint.i"
%import "base/types.hh"
%import "stdint.i"
%import "base/types.hh"
%import "stdint.i"
%import "base/types.hh"
%import "stdint.i"
%import "base/types.hh"

%import "python/m5/internal/param_MemObject.i"


// stop swig from creating/wrapping default ctor/dtor
%nodefault System;
class System
    : public MemObject
{
  public:
      Enums::MemoryMode getMemoryMode() const;
      void setMemoryMode(Enums::MemoryMode mode);
    
};

%include "params/System.hh"
